%YAML 1.1
%TAG !u! tag:unity3d.com,2011:
--- !u!1001 &7948085141691836912
PrefabInstance:
  m_ObjectHideFlags: 0
  serializedVersion: 2
  m_Modification:
    m_TransformParent: {fileID: 0}
    m_Modifications:
    - target: {fileID: 3086509358203937749, guid: 33fcbd1fd9bb60247a426dc89791f7ea,
        type: 3}
      propertyPath: m_Name
      value: Obstacle2 (38) Variant
      objectReference: {fileID: 0}
    - target: {fileID: 3086509358203937758, guid: 33fcbd1fd9bb60247a426dc89791f7ea,
        type: 3}
      propertyPath: m_RootOrder
      value: 0
      objectReference: {fileID: 0}
    - target: {fileID: 3086509358203937758, guid: 33fcbd1fd9bb60247a426dc89791f7ea,
        type: 3}
      propertyPath: m_LocalScale.x
      value: 9
      objectReference: {fileID: 0}
    - target: {fileID: 3086509358203937758, guid: 33fcbd1fd9bb60247a426dc89791f7ea,
        type: 3}
      propertyPath: m_LocalPosition.x
      value: 3.8
      objectReference: {fileID: 0}
    - target: {fileID: 3086509358203937758, guid: 33fcbd1fd9bb60247a426dc89791f7ea,
        type: 3}
      propertyPath: m_LocalPosition.y
      value: 1
      objectReference: {fileID: 0}
    - target: {fileID: 3086509358203937758, guid: 33fcbd1fd9bb60247a426dc89791f7ea,
        type: 3}
      propertyPath: m_LocalPosition.z
      value: 705.9
      objectReference: {fileID: 0}
    - target: {fileID: 3086509358203937758, guid: 33fcbd1fd9bb60247a426dc89791f7ea,
        type: 3}
      propertyPath: m_LocalRotation.w
      value: 1
      objectReference: {fileID: 0}
    - target: {fileID: 3086509358203937758, guid: 33fcbd1fd9bb60247a426dc89791f7ea,
        type: 3}
      propertyPath: m_LocalRotation.x
      value: 0
      objectReference: {fileID: 0}
    - target: {fileID: 3086509358203937758, guid: 33fcbd1fd9bb60247a426dc89791f7ea,
        type: 3}
      propertyPath: m_LocalRotation.y
      value: 0
      objectReference: {fileID: 0}
    - target: {fileID: 3086509358203937758, guid: 33fcbd1fd9bb60247a426dc89791f7ea,
        type: 3}
      propertyPath: m_LocalRotation.z
      value: 0
      objectReference: {fileID: 0}
    - target: {fileID: 3086509358203937758, guid: 33fcbd1fd9bb60247a426dc89791f7ea,
        type: 3}
      propertyPath: m_LocalEulerAnglesHint.x
      value: 0
      objectReference: {fileID: 0}
    - target: {fileID: 3086509358203937758, guid: 33fcbd1fd9bb60247a426dc89791f7ea,
        type: 3}
      propertyPath: m_LocalEulerAnglesHint.y
      value: 0
      objectReference: {fileID: 0}
    - target: {fileID: 3086509358203937758, guid: 33fcbd1fd9bb60247a426dc89791f7ea,
        type: 3}
      propertyPath: m_LocalEulerAnglesHint.z
      value: 0
      objectReference: {fileID: 0}
    m_RemovedComponents: []
  m_SourcePrefab: {fileID: 100100000, guid: 33fcbd1fd9bb60247a426dc89791f7ea, type: 3}
